
<svg width="30px" height="32px" viewBox="0 0 30 32" version="1.1" xmlns="http://www.w3.org/2000/svg" xmlns:xlink="http://www.w3.org/1999/xlink">
    <!-- Generator: Sketch 51.2 (57519) - http://www.bohemiancoding.com/sketch -->
    <desc>Created with Sketch.</desc>
    <defs></defs>
    <g id="Welcome" stroke="none" stroke-width="1" fill="none" fill-rule="evenodd">
        <g id="Desktop-HD" transform="translate(-73.000000, -14.000000)" fill-rule="nonzero">
            <g id="Group-5" transform="translate(73.000000, 13.000000)">
                <path d="M16.8820374,2.10432654 C16.4408871,1.21774155 15.49162,0.851584892 14.6168053,1 L2,29.2553902 L13,29.2553902 L29.4428889,29.2553902 L16.8820374,2.10432654 Z" id="Shape" fill="#FF4F19"></path>
                <path d="M29.2593909,28.9067278 L15.573888,28.9067278 C13.1304921,28.9067278 11.2461193,26.7263691 11.5692541,24.2725212 L14.634063,1 C14.0357666,1.11080594 13.4740092,1.49233094 13.1720025,2.14230851 L0.194661916,30.0820263 C-0.435699434,31.4393991 0.541658937,33 2.02236184,33 L27.9775401,33 C29.458243,33 30.43585,31.4393991 29.80524,30.0820263 L29.2593909,28.9067278 Z" id="Shape" fill="#DA4416"></path>
            </g>
        </g>
    </g>
</svg>